íÊ,TuVXeID,Æ±ID,vOID,¼OóÔ,@\¼,ø1,ø2,ø3,Êu,F1,F2,F3,F4,F5,F6,F7,F8,F9,F10,F11,F12,ESC
1,HAN,,,,ZÌ,,,,1,ÊíÆ±,mFÆ±,,Nñ,,,Ï½Ào^,,,,,,
2,HAN,HAN1,,,ÊíÆ±,,,,1,,,,,,,,,,,,,
3,HAN,HAN1,HNSE1011,jp.co.fsi.hn.hnse1011,ZüÍ,,,,1,õ,,í,,o^,,,sí,s¡Ê,,,,ßé
4,HAN,HAN1,HNSE1012,jp.co.fsi.hn.hnse1011,`[õ,1,,,,õ,,,ð,,Jn,,,,,,,ßé
4,HAN,HAN1,HNSE1012,jp.co.fsi.hn.hnse1011,`[õ,2,,,,õ,,,ð,,Jn,,,,,,,ßé
4,HAN,HAN1,HNSE1012,jp.co.fsi.hn.hnse1011,`[õ,3,,,,õ,,,ð,,Jn,,,,,,,ßé
4,HAN,HAN1,HNSE1014,jp.co.fsi.hn.hnse1011,[Ýè],,,,,,,,,,Û¶,,,,,,,æÁ
3,HAN,HAN1,HNSB1011,jp.co.fsi.hn.hnsb1011,¸Z,,,,2,õ,,,,,XV,,,¸ZmF,,,,
4,HAN,HAN1,HNSB1012,jp.co.fsi.hn.hnsb1011,¸Z¢ê,,,,,,,,,,,,,,,,,
3,HAN,HAN1,HNSE1021,jp.co.fsi.hn.hnse1021,TüÍ,,,,3,õ,,í,o^,,,,Ýè,,,,,
4,HAN,HAN1,HNSE1022,jp.co.fsi.hn.hnse1021,¸ZÔõ,,,,,õ,,,ð,,Jn,,,,,,,
4,HAN,HAN1,HNSE1022,jp.co.fsi.hn.hnse1021,¸ZÔõ,,1,,,õ,,,ð,,Jn,,,,,,,
4,HAN,HAN1,HNSE1022,jp.co.fsi.hn.hnse1021,¸ZÔõ,,2,,,õ,,,ð,,Jn,,,,,,,
3,HAN,HAN1,HNSR1011,jp.co.fsi.hn.hnsr1011,Zúñ,,,,4,õ,,,vr[,óü,PDF,Excel,,,,,v^,I¹
3,HAN,HAN1,HNSR1021,jp.co.fsi.hn.hnsr1021,dØ`FbNXg,,,,5,õ,,,ÌßÚËÞ­°,óü,PDF,Excel,,,,,v^,
3,HAN,HAN1,HNSB1021,jp.co.fsi.hn.hnsb1021,Zdóf[^ì¬,,,,6,õ,,í,QÆ,,XV,,,,,,Ýè,
4,HAN,HAN1,HNSB1022,jp.co.fsi.hn.hnsb1021,ì¬Ï dóf[^õ,,,,,,,,,,,,,,,,,ßé
4,HAN,HAN1,HNSB1023,jp.co.fsi.hn.hnsb1021,dóf[^QÆ,,,,,`®,,,,,XV,,,,,,,ßé
4,HAN,HAN1,HNSB1024,jp.co.fsi.hn.hnsb1021,dóf[^QÆ,,,,,,,,,,,,,,,,,ßé
4,HAN,HAN1,HNSB1025,jp.co.fsi.hn.hnsb1021,dóf[^ì¬ ®ìÝè,,,,,õ,,,,,XV,,,,,,,æÁ
4,HAN,HAN1,HNSB1028,jp.co.fsi.hn.hnsb1021,dóf[^QÆ ,,,,,,,,,,,O`[,`[,,,,,ßé
2,HAN,HAN2,,,,,,,2,,,,,,,,,,,,,
3,HAN,HAN2,HNDR1011,jp.co.fsi.hn.hndr1011,Nãà¾×¿oÍ,,,,1,õ,,,ÌßÚËÞ­°,óü,PDF,Excel,,,,,v^,
3,HAN,HAN2,HNDR1021,jp.co.fsi.hn.hndr1021,gdØoÍ,,,,2,õ,,,ÌßÚËÞ­°,óü,PDF,Excel,,,,,v^,
3,HAN,HAN2,HNDR1031,jp.co.fsi.hn.hndr1031,sµîñ,,,,3,õ,,,ÌßÚËÞ­°,óü,PDF,Excel,,,,,v^,
3,HAN,HAN2,HNDR1041,jp.co.fsi.hn.hndr1041,ÂlNãà¾×¿oÍ,,,,4,õ,,,ÌßÚËÞ­°,óü,PDF,Excel,,,,,v^,
3,HAN,HAN2,HNDR1051,jp.co.fsi.hn.hndr1051,üà`FbNXg,,,,5,õ,,,ÌßÚËÞ­°,óü,PDF,Excel,,,,,v^,
3,HAN,HAN2,HNDR1061,jp.co.fsi.hn.hndr1061,oà`FbNXg,,,,6,õ,,,ÌßÚËÞ­°,óü,PDF,Excel,,,,,v^,
3,HAN,HAN2,HNDR1071,jp.co.fsi.hn.hndr1071,gdØúv\,,,,7,õ,,,ÌßÚËÞ­°,óü,PDF,Excel,,,,,v^,
3,HAN,HAN2,HNDR1081,jp.co.fsi.hn.hndr1081,UÖyoà`FbNXg,,,,8,õ,,,ÌßÚËÞ­°,óü,PDF,Excel,,,,,v^,
3,HAN,HAN2,HNDR1091,jp.co.fsi.hn.hndr1091,x¥¾×,,,,9,õ,,,ÌßÚËÞ­°,óü,PDF,Excel,,,,,v^,
3,HAN,HAN2,HNDR1101,jp.co.fsi.hn.hndr1101,lÊã¾×,,,,10,õ,,,ÌßÚËÞ­°,óü,PDF,Excel,,,,,v^,
3,HAN,HAN2,HNDB1011,jp.co.fsi.hn.hndb1011,Y±f[^,,,,11,õ,,,oÍ,,,,,,,,,
3,HAN,HAN2,HNDB1021,jp.co.fsi.hn.hndb1021,MpAg,,,,12,õ,,,ÌßÚËÞ­°,óü,FDì¬,,,,,,v^,
2,HAN,HAN3,,,,,,,3,,,,,,,,,,,,,
3,HAN,HAN3,HNMR1011,jp.co.fsi.hn.hnmr1011,gdØv\,,,,1,õ,,,ÌßÚËÞ­°,óü,PDF,Excel,,,,,v^,
3,HAN,HAN3,HNMR1021,jp.co.fsi.hn.hnmr1021,næÊÆíÊv\,,,,2,õ,,,vr[,óü,PDF,Excel,,,,,v^,I¹
3,HAN,HAN3,HNMR1031,jp.co.fsi.hn.hnmr1031,íªÞÊv\,,,,3,õ,,,vr[,óü,PDF,Excel,,,,,v^,I¹
3,HAN,HAN3,HNMR1041,jp.co.fsi.hn.hnmr1041,ÆíÊíÊv\,,,,4,õ,,,vr[,óü,PDF,Excel,,,,,v^,I¹
3,HAN,HAN3,HNMR1051,jp.co.fsi.hn.hnmr1051,pIÊíÊªÞÊgñ,,,,5,õ,,,vr[,óü,PDF,Excel,,,,,v^,I¹
3,HAN,HAN3,HNMR1061,jp.co.fsi.hn.hnmr1061,sµîñivj,,,,6,õ,,,vr[,óü,PDF,Excel,,,,,v^,I¹
3,HAN,HAN3,HNMR1071,jp.co.fsi.hn.hnmr1071,Ì¢¥à³ ,,,,7,õ,,,ÌßÚËÞ­°,óü,PDF,Excel,,,,,v^,
3,HAN,HAN3,HNMR1081,jp.co.fsi.hn.hnmr1081,Ì¢ûà³ ,,,,8,õ,,,ÌßÚËÞ­°,óü,PDF,Excel,,,,,v^,
3,HAN,HAN3,HNMR1091,jp.co.fsi.hn.hnmr1091,næÊÂlÊÞÊlñ,,,,9,õ,,,vr[,óü,PDF,Excel,Ýè,,,,v^,I¹
3,HAN,HAN3,HNMR1101,jp.co.fsi.hn.hnrm1101,næÊÂlÊÆÔÊlñ,,,,10,õ,,,ÌßÚËÞ­°,óü,PDF,Excel,Ýè,,,,v^,
3,HAN,HAN3,HNMR1111,jp.co.fsi.hn.hnmr1111,Ì¢ûàê\,,,,11,õ,,,ÌßÚËÞ­°,óü,PDF,Excel,úñÈÚ,üàÈÚ,,,v^,
3,HAN,HAN3,HNMR1121,jp.co.fsi.hn.hnmr1121,Ì¢¥àê\,,,,12,õ,,,ÌßÚËÞ­°,óü,PDF,Excel,úñÈÚ,üàÈÚ,,,v^,
3,HAN,HAN4,HNMR1131,jp.co.fsi.hn.hnmr1131,ZWv\,,,,13,õ,,,ÌßÚËÞ­°,óü,PDF,EXCEL,,,,ÚÝè,ÌßØÝÀ,
4,HAN,HAN4,HNMR1132,jp.co.fsi.hn.hnmr1131,ZWv\,,,,,,,,,,,,,,,ÇÁ,,æÁ
4,HAN,HAN4,HNMR1133,jp.co.fsi.hn.hnmr1131,Wv\ÌÝè,,,,,,,í,,,o^,,,,,,,ßé
4,HAN,HAN4,HNMR1134,jp.co.fsi.hn.hnmr1131,WvæªÝè,,,,,,,,,,,,,,,,,I¹
3,HAN,HAN4,HNMR1141,jp.co.fsi.hn.hnmr1141,ZÚ\,,,,14,õ,,,ÌßÚËÞ­°,óü,PDF,EXCEL,,,,ÚÝè,ÌßØÝÀ,
4,HAN,HAN4,HNMR1142,jp.co.fsi.hn.hnmr1141,ZÚ\,,,,,,,,,,,,,,,ÇÁ,,æÁ
4,HAN,HAN4,HNMR1143,jp.co.fsi.hn.hnmr1141,Ú\ÌÝè,,,,,,,í,,,o^,,,,,,,ßé
4,HAN,HAN4,HNMR1144,jp.co.fsi.hn.hnmr1141,WvæªÝè,,,,,,,,,,,,,,,,,I¹
2,HAN,HAN4,,,N,,,,4,,,,,,,,,,,,,
3,HAN,HAN4,HNYR1011,jp.co.fsi.hn.hnyr1011,gõÊgNv\,,,,1,õ,,,ÌßÚËÞ­°,óü,PDF,Excel,,,,,v^,
3,HAN,HAN4,HNYR1021,jp.co.fsi.hn.hnyr1021,Æ§À¹¸ÛØê\,,,,2,õ,,,ÌßÚËÞ­°,óü,PDF,Excel,,,,,v^,
3,HAN,HAN4,HNYR1031,jp.co.fsi.hn.hnyr1031,gè¿Nv\,,,,3,õ,,,ÌßÚËÞ­°,óü,PDF,Excel,,,,,v^,
3,HAN,HAN4,HNYR1041,jp.co.fsi.hn.hnyr1041,gõÊi\¿,,,,4,õ,,,ÌßÚËÞ­°,óü,PDF,Excel,,,,,v^,
3,HAN,HAN4,HNYR1051,jp.co.fsi.hn.hnyr1051,gØ¾,,,,5,õ,,,ÌßÚËÞ­°,óü,PDF,Excel,,,,,v^,
3,HAN,HAN4,HNYR1061,jp.co.fsi.hn.hnyr1061,NãØ¾,,,,6,õ,,,ÌßÚËÞ­°,óü,PDF,Excel,,,,,v^,
3,HAN,HAN4,HNYR1071,jp.co.fsi.hn.hnyr1071,DåÊgúê\,,,,7,õ,,,ÌßÚËÞ­°,óü,PDF,Excel,,,,,v^,
3,HAN,HAN4,HNYR1081,jp.co.fsi.hn.hnyr1081,ÔÊíÊ [iVKj,,,,8,õ,,,ÌßÚËÞ­°,óü,PDF,Excel,,,,,v^,
2,HAN,HAN5,,,}X^Ç,,,,9,,,,,,,,,,,,,
3,HAN,HAN5,CMCM2011,jp.co.fsi.cm.cmcm2011,Då}X^Ìo^,,2,,1,õ,,,ÇÁ,,,,,,,,,
4,HAN,HAN9,CMCM2011,jp.co.fsi.cm.cmcm2011,DåÌõ,1,,,,õ,,,,,,,,,,,,ßé
4,HAN,HAN9,CMCM2011,jp.co.fsi.cm.cmcm2011,æøæÌõ,9,,,,õ,,,,,,,,,,,,ßé
4,HAN,HAN5,CMCM2012,jp.co.fsi.cm.cmcm2011,DåÌo^,1,,,,õ,,í,,,o^,,,,,,,ßé
4,HAN,HAN5,CMCM2012,jp.co.fsi.cm.cmcm2011,DåÌo^,2,,,,õ,,í,,,XV,,,,,,,ßé
4,HAN,HAN5,CMCM2011,jp.co.fsi.cm.cmcm2012,DåÌo^,1,,,,õ,,í,ÇÁ,,,,,,,,,
3,HAN,HAN5,CMCM2014,jp.co.fsi.cm.cmcm2011,Då}X^úÝè,,,,,õ,,,,,o^,,,,,,,ßé
3,HAN,HAN5,HNCM1011,jp.co.fsi.hn.hncm1011,lÌo^,,,,2,õ,,,ÇÁ,,,,,,,,,
4,HAN,HAN5,HNCM1012,jp.co.fsi.hn.hncm1011,lÌo^,1,,,,õ,,í,,,o^,,,,,,,ßé
4,HAN,HAN5,HNCM1012,jp.co.fsi.hn.hncm1011,lÌo^,2,,,,õ,,í,,,XV,,,,,,,ßé
3,HAN,HAN5,HNCM1014,jp.co.fsi.hn.hncm1011,l}X^úÝè,,,,,õ,,,,,o^,,,,,,,ßé
3,HAN,HAN5,HNCM1021,jp.co.fsi.hn.hncm1021,næ,,,,3,õ,,,ÇÁ,,,,,,,,,
4,HAN,HAN5,HNCM1022,jp.co.fsi.hn.hncm1021,næÌo^,1,,,,,,í,,,o^,,,,,,,
4,HAN,HAN5,HNCM1022,jp.co.fsi.hn.hncm1021,næÌo^,2,,,,,,í,,,XV,,,,,,,
3,HAN,HAN5,HNCM1031,jp.co.fsi.hn.hncm1031,@Ìo^,,,,4,õ,,,ÇÁ,,,,,,,,,
4,HAN,HAN5,HNCM1032,jp.co.fsi.hn.hncm1031,@Ìo^,1,,,,,,í,,,o^,,,,,,,
4,HAN,HAN5,HNCM1032,jp.co.fsi.hn.hncm1031,@Ìo^,2,,,,,,í,,,XV,,,,,,,
3,HAN,HAN5,HNCM1041,jp.co.fsi.hn.hncm1041,íªÞÌo^,,,,5,õ,,,ÇÁ,,,,,,,,,
4,HAN,HAN5,HNCM1042,jp.co.fsi.hn.hncm1041,íªÞÌo^,1,,,,,,í,,,o^,,,,,,,
4,HAN,HAN5,HNCM1042,jp.co.fsi.hn.hncm1041,íªÞÌo^,2,,,,,,í,,,XV,,,,,,,
3,HAN,HAN5,HNCM1051,jp.co.fsi.hn.hncm1051,íÌo^,,,,6,õ,,,ÇÁ,,,,,,,,,I¹
4,HAN,HAN5,HNCM1052,jp.co.fsi.hn.hncm1051,íÌo^,1,,,,õ,,í,,,o^,,,,,,,ßé
4,HAN,HAN5,HNCM1052,jp.co.fsi.hn.hncm1051,íÌo^,1,1,,,õ,,í,,,o^,,,,,,,ßé
4,HAN,HAN5,HNCM1052,jp.co.fsi.hn.hncm1051,íÌo^,1,2,,,õ,,í,,,o^,,,,,,,ßé
4,HAN,HAN5,HNCM1052,jp.co.fsi.hn.hncm1051,íÌo^,2,,,,õ,,í,,,XV,,,,,,,ßé
4,HAN,HAN5,HNCM1052,jp.co.fsi.hn.hncm1051,íÌo^,2,1,,,õ,,í,,,XV,,,,,,,ßé
4,HAN,HAN5,HNCM1052,jp.co.fsi.hn.hncm1051,íÌo^,2,2,,,õ,,í,,,XV,,,,,,,ßé
3,HAN,HAN5,HNCM1054,jp.co.fsi.hn.hncm1051,í}X^úÝè,1,,,,õ,,,,,o^,,,,,,,ßé
3,HAN,HAN5,HNCM1054,jp.co.fsi.hn.hncm1051,í}X^úÝè,2,,,,õ,,,,,XV,,,,,,,ßé
3,HAN,HAN5,HNCM1061,jp.co.fsi.hn.hncm1061,D¼Ìo^,,,,7,õ,,,ÇÁ,,,,,,,,,
4,HAN,HAN5,HNCM1062,jp.co.fsi.hn.hncm1061,D¼Ìo^,1,,,,,,í,,,o^,,,,,,,
4,HAN,HAN5,HNCM1062,jp.co.fsi.hn.hncm1061,D¼Ìo^,2,,,,,,í,,,XV,,,,,,,
3,HAN,HAN5,HNCM1071,jp.co.fsi.hn.hncm1071,TÚÝè,,,,8,õ,,,ÇÁ,,,,,,,,,
4,HAN,HAN5,HNCM1071,jp.co.fsi.hn.hncm1071,TÚÌõ,1,,,,õ,,,ÇÁ,,,,,,,,,
4,HAN,HAN5,HNCM1071,jp.co.fsi.hn.hncm1071,TÚÌõ,1,1,,,õ,,,ÇÁ,,,,,,,,,
4,HAN,HAN5,HNCM1071,jp.co.fsi.hn.hncm1071,TÚÌõ,1,2,,,õ,,,ÇÁ,,,,,,,,,
4,HAN,HAN5,HNCM1072,jp.co.fsi.hn.hncm1071,TÚÌo^,1,,,,õ,,í,,,o^,,,,,,,
4,HAN,HAN5,HNCM1072,jp.co.fsi.hn.hncm1071,TÚÌo^,1,1,,,õ,,í,,,o^,,,,,,,
4,HAN,HAN5,HNCM1072,jp.co.fsi.hn.hncm1071,TÚÌo^,1,2,,,õ,,í,,,o^,,,,,,,
4,HAN,HAN5,HNCM1072,jp.co.fsi.hn.hncm1071,TÚÌo^,2,,,,õ,,í,,,XV,,,,,,,
4,HAN,HAN5,HNCM1072,jp.co.fsi.hn.hncm1071,TÚÌo^,2,1,,,õ,,í,,,XV,,,,,,,
5,HAN,HAN5,HNCM1073,jp.co.fsi.hn.hncm1071,TÚÝèõ,1,,,,,,,,,,,,,,,,
5,HAN,HAN5,HNCM1073,jp.co.fsi.hn.hncm1071,TÎÛdØÚõ,2,,,,,,,,,,,,,,,,
3,HAN,HAN5,HNCR1011,jp.co.fsi.hn.hncr1011,Då}X^ê,,,,9,õ,,,ÌßÚËÞ­°,óü,PDF,Excel,,,,,v^,I¹
3,HAN,HAN5,HNCR1021,jp.co.fsi.hn.hncr1021,l}X^ê,,,,10,õ,,,ÌßÚËÞ­°,óü,PDF,Excel,,,,,v^,ßé
3,HAN,HAN5,HNCR1031,jp.co.fsi.hn.hncr1031,í}X^ê,,,,11,õ,,,ÌßÚËÞ­°,óü,PDF,Excel,,,,,v^,ßé
3,HAN,HAN5,HNCM1081,jp.co.fsi.hn.hncm1081,pIÌo^,,,,12,õ,,,ÇÁ,,,,,,,,,
4,HAN,HAN5,HNCM1082,jp.co.fsi.hn.hncm1081,pIÌo^,1,,,,õ,,í,,,o^,,,,,,,ßé
4,HAN,HAN5,HNCM1082,jp.co.fsi.hn.hncm1081,pIÌo^,2,,,,õ,,í,,,XV,,,,,,,ßé
3,HAN,HAN5,HNCM1091,jp.co.fsi.hn.hncm1091,è¿Ìo^,,,,13,õ,,,ÇÁ,,,,,,,,,
4,HAN,HAN5,HNCM1092,jp.co.fsi.hn.hncm1091,è¿Ìo^,1,,,,õ,,í,,,o^,,,,,,,ßé
4,HAN,HAN5,HNCM1092,jp.co.fsi.hn.hncm1091,è¿Ìo^,2,,,,õ,,í,,,XV,,,,,,,ßé
3,HAN,HAN5,CMCM2031,jp.co.fsi.cm.cmcm2031,xÌo^,,,,15,õ,,,ÇÁ,,,,,,,,,
4,HAN,HAN5,CMCM2032,jp.co.fsi.cm.cmcm2031,xÌo^,1,,,,õ,,í,,,o^,,,,,,,ßé
3,HAN,HAN5,CMCM2051,jp.co.fsi.cm.cmcm2051,©®dóÌÝè,,,,15,õ,,,ÇÁ,,,,,,,,,
4,HAN,HAN5,CMCM2052,jp.co.fsi.cm.cmcm2051,©®dóÌo^,1,,,,õ,,í,,,o^,,,,,,,ßé
4,HAN,HAN5,CMCM2052,jp.co.fsi.cm.cmcm2051,©®dóÌo^,2,,,,õ,,í,,,XV,,,,,,,ßé
3,HAN,HAN5,CMCM2061,jp.co.fsi.cm.cmcm2061,EvÌo^,,,,16,õ,,,ÇÁ,,,,,,,,,
3,HAN,HAN9,CMCM2061,jp.co.fsi.cm.cmcm2061,EvÌõ,1,,,,õ,,,ÇÁ,,,,,,,,,ßé
3,HAN,HAN9,CMCM2061,jp.co.fsi.cm.cmcm2061,EvÌõ,1,1,,,õ,,,ÇÁ,,,,,,,,,ßé
3,HAN,HAN9,CMCM2061,jp.co.fsi.cm.cmcm2061,EvÌõ,1,2,,,õ,,,ÇÁ,,,,,,,,,ßé
4,HAN,HAN5,CMCM2062,jp.co.fsi.cm.cmcm2061,EvÌo^,1,,,,õ,,í,,,o^,,,,,,,ßé
4,HAN,HAN5,CMCM2062,jp.co.fsi.cm.cmcm2061,EvÌo^,1,1,,,õ,,í,,,o^,,,,,,,ßé
4,HAN,HAN5,CMCM2062,jp.co.fsi.cm.cmcm2061,EvÌo^,1,2,,,õ,,í,,,o^,,,,,,,ßé
4,HAN,HAN5,CMCM2062,jp.co.fsi.cm.cmcm2061,EvÌo^,2,,,,õ,,í,,,XV,,,,,,,ßé
4,HAN,HAN5,CMCM2062,jp.co.fsi.cm.cmcm2061,EvÌo^,2,1,,,õ,,í,,,XV,,,,,,,ßé
4,HAN,HAN5,CMCM2062,jp.co.fsi.cm.cmcm2061,EvÌo^,2,2,,,õ,,í,,,XV,,,,,,,ßé
,,,,,,,,,,,,,,,,,,,,,,
1,KOB,,,,w,,,,,ú,,Nñ,EDI,,,,,,Ï½ÀÒÝÃ,,,
2,KOB,KOB1,,,ú,,,,1,,,,,,,,,,,,,
3,KOB,KOB1,KBDE1011,jp.co.fsi.kb.kbde1011,ã`[üÍ,,,,1,õ,,í,,,o^,,sí,¡Ê,I¹,Ìû,v^,
4,KOB,KOB1,KBDE1012,jp.co.fsi.kb.kbde1011,ã`[õ,,,,,õ,,,ð,,Jn,,,,,,,ßé
4,KOB,KOB1,KBDE1014,jp.co.fsi.kb.kbde1011,P¿QÆ,,,1,,,,í,,,,,,,,,,ßé
3,KOB,KOB1,KBDR1011,jp.co.fsi.kb.kbdr1011,ãúñ,,,,2,õ,,,ÌßÚËÞ­°,óü,PDF,Excel,,,,,v^,
3,KOB,KOB1,KBDR1021,jp.co.fsi.kb.kbdr1021,ãê,1,,,3,õ,,,ÌßÚËÞ­°,óü,PDF,Excel,,,,,v^,
3,KOB,KOB1,KBDR1031,jp.co.fsi.kb.kbdr1031,ã³ â¹,,,,4,õ,,,ÌßÚËÞ­°,óü,PDF,Excel,,,,,v^,
3,KOB,KOB1,KBDR1041,jp.co.fsi.kb.kbdr1041,¢ûàê\,,,,5,õ,,,ÌßÚËÞ­°,óü,PDF,Excel,,,,,v^,
3,KOB,KOB1,KBDR1051,jp.co.fsi.kb.kbdr1051,DåÊ¤iãÊ\,,,,6,õ,,,ÌßÚËÞ­°,óü,PDF,Excel,,,,,v^,
3,KOB,KOB1,KBDB1011,jp.co.fsi.kb.kbdb1011,ãdóf[^ì¬,,,,7,õ,,í,QÆ,,o^,,,,,,Ýè,
4,KOB,KOB1,KBDB1012,jp.co.fsi.kb.kbdb1011,ì¬Ï dóf[^õ,,,,,,,,,,,,,,,,,ßé
4,KOB,KOB1,KBDB1013,jp.co.fsi.kb.kbdb1011,dóf[^QÆ,,,,,`®,,,,,XV,,,,,,,ßé
4,KOB,KOB1,KBDB1014,jp.co.fsi.kb.kbdb1011,dóf[^ì¬ `[\¦,,,,,,,,,,,O`[,`[,,,,,ßé
4,KOB,KOB1,KBDB1015,jp.co.fsi.kb.kbdb1011,dóf[^ì¬ ®ìÝè,,,,,õ,,,,,XV,,,,,,,æÁ
3,KOB,KOB1,KBDE1021,jp.co.fsi.kb.kbde1021,dü`[üÍ,,,,8,õ,,í,,,o^,,sí,¡Ê,I¹,,,
4,KOB,KOB1,KBDE1022,jp.co.fsi.kb.kbde1021,dü`[õ,,,,,õ,,,ð,,Jn,,,,,,,ßé
4,KOB,KOB1,KBDE1023,jp.co.fsi.kb.kbde1021,P¿QÆ,,,1,,,,í,,,,,,,,,,ßé
3,KOB,KOB1,KBDR2011,jp.co.fsi.kb.kbdr2011,düúñ,,,,9,õ,,,ÌßÚËÞ­°,óü,PDF,Excel,,,,,v^,
3,KOB,KOB1,KBDR1021,jp.co.fsi.kb.kbdr1021,düê,2,,,10,õ,,,ÌßÚËÞ­°,óü,PDF,Excel,,,,,v^,
3,KOB,KOB1,KBDR2031,jp.co.fsi.kb.kbdr2031,|³ â¹,,,,11,õ,,,ÌßÚËÞ­°,óü,PDF,Excel,,,,,v^,
3,KOB,KOB1,KBDR2041,jp.co.fsi.kb.kbdr2041,¢¥àê\,,,,12,õ,,,ÌßÚËÞ­°,óü,PDF,Excel,,,,,v^,
3,KOB,KOB1,KBDB1021,jp.co.fsi.kb.kbdb1021,düdóf[^ì¬,,,,13,õ,,í,QÆ,,o^,,,,,,Ýè,
4,KOB,KOB1,KBDB1022,jp.co.fsi.kb.kbdb1021,ì¬Ï dóf[^õ,,,,,,,,,,,,,,,,,ßé
4,KOB,KOB1,KBDB1023,jp.co.fsi.kb.kbdb1021,dóf[^QÆ,,,,,`®,,,,,XV,,,,,,,ßé
4,KOB,KOB1,KBDB1024,jp.co.fsi.kb.kbdb1021,dóf[^ì¬ `[\¦,,,,,,,,,,,O`[,`[,,,,,ßé
4,KOB,KOB1,KBDB1025,jp.co.fsi.kb.kbdb1021,dóf[^ì¬ ®ìÝè,,,,,õ,,,,,XV,,,,,,,æÁ
2,KOB,KOB2,,,,,,,2,,,,,,,,,,,,,
3,KOB,KOB2,KBMR1011,jp.co.fsi.kb.kbmr1011,w¤ió¥ñ,,,,1,õ,,,ÌßÚËÞ­°,óü,PDF,Excel,,,,,v^,
3,KOB,KOB2,KBME1011,jp.co.fsi.kb.kbme1011,IµüÍ,,,,2,õ,,í,,,o^,,,,I¹,,,
3,KOB,KOB2,KBMR1021,jp.co.fsi.kb.kbmr1021,Iµ\,,,,3,õ,,,ÌßÚËÞ­°,óü,PDF,Excel,,Ýè,,,v^,
4,KOB,KOB2,KBMR1022,jp.co.fsi.kb.kbmr1021,Iµú\¦,,,,,,,,,,XV,,,,,,,ßé
3,KOB,KOB2,KBMB1011,jp.co.fsi.kb.kbmb1011,IµXV,,,,4,õ,,,,,XV,,,,,,,
3,KOB,KOB2,KBMR1031,jp.co.fsi.kb.kbmr1031,¤io[ ,,,,5,õ,,,ÌßÚËÞ­°,óü,PDF,Excel,,,,,v^,
3,KOB,KOB2,KBMR1041,jp.co.fsi.kb.kbmr1041,¤iãÊ\,,,,6,õ,,,ÌßÚËÞ­°,óü,PDF,Excel,,,,,v^,
3,KOB,KOB2,KBMR1051,jp.co.fsi.kb.kbmr1051,ÆWvê\,,,,8,õ,,,ÌßÚËÞ­°,óü,PDF,Excel,,,,Ýè,v^,
3,KOB,KOB2,KBMR1052,jp.co.fsi.kb.kbmr1051,§R[hÌÝè,,,,,õ,,,,,XV,,,,,,,ßé
3,KOB,KOB2,KBMR1061,jp.co.fsi.kb.kbmr1061,¤iÇúñ,,,,9,õ,,,ÌßÚËÞ­°,óü,PDF,Excel,,,,,v^,
2,KOB,KOB10,,,Ï½ÀÒÝÃ,,,,10,,,,,,,,,,,,,
3,KOB,KOB10,KBCM1011,jp.co.fsi.kb.kbcm1011,düæÌo^,,,,1,õ,,,ÇÁ,óü,,,,,,,,
4,KOB,KOB10,KBCM1012,jp.co.fsi.kb.kbcm1011,düæÌo^,1,,,,õ,,í,,,o^,,,,,,,ßé
4,KOB,KOB10,KBCM1012,jp.co.fsi.kb.kbcm1011,düæÌo^,2,,,,õ,,í,,,XV,,,,,,,ßé
4,KOB,KOB10,KBCM1013,jp.co.fsi.kb.kbcm1011,düæ}X^ê,,,,,õ,,,ÌßÚËÞ­°,óü,,,,,,,,ßé
3,KOB,KOB10,KBCM1014,jp.co.fsi.kb.kbcm1011,düæ}X^úÝè,,,,,õ,,,,,o^,,,,,,,ßé
3,KOB,KOB10,CMCM2021,jp.co.fsi.cm.cmcm2021,SÒÌo^,,,,2,õ,,,ÇÁ,,,,,,,,,
4,KOB,KOB10,CMCM2022,jp.co.fsi.cm.cmcm2021,SÒÌo^,1,,,,õ,,í,,,o^,,,,,,,ßé
4,KOB,KOB10,CMCM2022,jp.co.fsi.cm.cmcm2021,SÒÌo^,1,1,,,õ,,í,,,o^,,,,,,,ßé
4,KOB,KOB10,CMCM2022,jp.co.fsi.cm.cmcm2021,SÒÌo^,1,2,,,õ,,í,,,o^,,,,,,,ßé
4,KOB,KOB10,CMCM2022,jp.co.fsi.cm.cmcm2021,SÒÌo^,2,,,,õ,,í,,,XV,,,,,,,ßé
4,KOB,KOB10,CMCM2022,jp.co.fsi.cm.cmcm2021,SÒÌo^,2,1,,,õ,,í,,,XV,,,,,,,ßé
4,KOB,KOB10,CMCM2022,jp.co.fsi.cm.cmcm2021,SÒÌo^,2,2,,,õ,,í,,,XV,,,,,,,ßé
3,KOB,KOB10,KBCM1021,jp.co.fsi.kb.kbcm1021,¤iÌo^,,,,3,õ,,,ÇÁ,óü,,,,,,,,
3,KOB,KOB10,KBCM1021,jp.co.fsi.kb.kbcm1021,¤iÌo^,,1,,3,õ,,,ÇÁ,óü,,,,,,,,
3,KOB,KOB10,KBCM1021,jp.co.fsi.kb.kbcm1021,¤iÌo^,,2,,3,õ,,,ÇÁ,óü,,,,,,,,
4,KOB,KOB10,KBCM1022,jp.co.fsi.kb.kbcm1021,¤iÌo^,1,,,,õ,,,,,o^,,,,,,,ßé
4,KOB,KOB10,KBCM1022,jp.co.fsi.kb.kbcm1021,¤iÌo^,1,1,,,õ,,,,,o^,,,,,,,ßé
4,KOB,KOB10,KBCM1022,jp.co.fsi.kb.kbcm1021,¤iÌo^,1,2,,,õ,,,,,o^,,,,,,,ßé
4,KOB,KOB10,KBCM1022,jp.co.fsi.kb.kbcm1021,¤iÌo^,2,,,,õ,,í,,,XV,,,,,,,ßé
4,KOB,KOB10,KBCM1022,jp.co.fsi.kb.kbcm1021,¤iÌo^,2,1,,,õ,,í,,,XV,,,,,,,ßé
4,KOB,KOB10,KBCM1022,jp.co.fsi.kb.kbcm1021,¤iÌo^,2,2,,,õ,,í,,,XV,,,,,,,ßé
4,KOB,KOB10,KBCM1023,jp.co.fsi.kb.kbcm1021,¤i}X^ê,,,,,õ,,,ÌßÚËÞ­°,óü,,,,,,,,ßé
3,KOB,KOB10,KBCM1024,jp.co.fsi.kb.kbcm1021,¤i}X^úÝè,1,,,,õ,,,,,o^,,,,,,,ßé
3,KOB,KOB10,KBCM1024,jp.co.fsi.kb.kbcm1021,¤i}X^úÝè,2,,,,õ,,,,,o^,,,,,,,ßé
3,KOB,KOB10,CMCM2051,jp.co.fsi.cm.cmcm2051,©®dóÌÝè,,,,4,õ,,,ÇÁ,,,,,,,,,
4,KOB,KOB10,CMCM2052,jp.co.fsi.cm.cmcm2051,©®dóÌo^,1,,,,õ,,í,,,o^,,,,,,,ßé
4,KOB,KOB10,CMCM2052,jp.co.fsi.cm.cmcm2051,©®dóÌo^,2,,,,õ,,í,,,XV,,,,,,,ßé
4,KOB,KOB10,KOBC9052,jp.co.fsi.kob.kobc9051,ã,1,1,1,,õ,,í,,,o^,,,,,,,ßé
4,KOB,KOB10,KOBC9052,jp.co.fsi.kob.kobc9051,ã,1,1,2,,õ,,í,,,o^,,,,,,,ßé
4,KOB,KOB10,KOBC9052,jp.co.fsi.kob.kobc9051,dü,1,2,1,,õ,,í,,,o^,,,,,,,ßé
4,KOB,KOB10,KOBC9052,jp.co.fsi.kob.kobc9051,dü,1,2,2,,õ,,í,,,o^,,,,,,,ßé
4,KOB,KOB10,KOBC9052,jp.co.fsi.kob.kobc9051,Z,1,3,1,,õ,,í,,,o^,,,,,,,ßé
4,KOB,KOB10,KOBC9052,jp.co.fsi.kob.kobc9051,Z,1,3,2,,õ,,í,,,o^,,,,,,,ßé
4,KOB,KOB10,KOBC9052,jp.co.fsi.kob.kobc9051,T,1,4,1,,õ,,í,,,o^,,,,,,,ßé
4,KOB,KOB10,KOBC9052,jp.co.fsi.kob.kobc9051,T,1,4,2,,õ,,í,,,o^,,,,,,,ßé
4,KOB,KOB10,KOBC9052,jp.co.fsi.kob.kobc9051,x¥,1,5,1,,õ,,í,,,o^,,,,,,,ßé
4,KOB,KOB10,KOBC9052,jp.co.fsi.kob.kobc9051,x¥,1,5,2,,õ,,í,,,o^,,,,,,,ßé
4,KOB,KOB10,KOBC9052,jp.co.fsi.kob.kobc9051,ã,2,1,1,,õ,,í,,,o^,,,,,,,ßé
4,KOB,KOB10,KOBC9052,jp.co.fsi.kob.kobc9051,ã,2,1,2,,õ,,í,,,o^,,,,,,,ßé
4,KOB,KOB10,KOBC9052,jp.co.fsi.kob.kobc9051,dü,2,2,1,,õ,,í,,,o^,,,,,,,ßé
4,KOB,KOB10,KOBC9052,jp.co.fsi.kob.kobc9051,dü,2,2,2,,õ,,í,,,o^,,,,,,,ßé
4,KOB,KOB10,KOBC9052,jp.co.fsi.kob.kobc9051,Z,2,3,1,,õ,,í,,,o^,,,,,,,ßé
4,KOB,KOB10,KOBC9052,jp.co.fsi.kob.kobc9051,Z,2,3,2,,õ,,í,,,o^,,,,,,,ßé
4,KOB,KOB10,KOBC9052,jp.co.fsi.kob.kobc9051,T,2,4,1,,õ,,í,,,o^,,,,,,,ßé
4,KOB,KOB10,KOBC9052,jp.co.fsi.kob.kobc9051,T,2,4,2,,õ,,í,,,o^,,,,,,,ßé
4,KOB,KOB10,KOBC9052,jp.co.fsi.kob.kobc9051,x¥,2,5,1,,õ,,í,,,o^,,,,,,,ßé
4,KOB,KOB10,KOBC9052,jp.co.fsi.kob.kobc9051,x¥,2,5,2,,õ,,í,,,o^,,,,,,,ßé
4,KOB,KOB10,KOBC9053,jp.co.fsi.kob.kobc9051,©®dó(­¶)õ,1,,,,,,,,,,,,,,o^,,
4,KOB,KOB10,KOBC9053,jp.co.fsi.kob.kobc9051,©®dó(­¶)õ,2,,,,,,,,,,,,,,o^,,
4,KOB,KOB10,KOBC9053,jp.co.fsi.kob.kobc9051,©®dó(­¶)õ,3,,,,,,,,,,,,,,o^,,
1,KOB,,,,w,,,,,,,,,w(ú),w(),Nñ,,}X^o^,,,,
2,KOB,KOB3,,,Nñ,,,,3,,,,,,,,,,,,,
3,KOB,KOB3,KBYR1011,jp.co.fsi.kb.kbyr1011,ãØ¾,,,,1,õ,,,ÌßÚËÞ­°,óü,PDF,Excel,,,,,v^,
3,KOB,KOB3,KBYR1021,jp.co.fsi.kb.kbyr1021,wãê\,1,,,2,õ,,,ÌßÚËÞ­°,óü,PDF,Excel,,,,Ýè,v^,
3,KOB,KOB3,KBYR1021,jp.co.fsi.kb.kbyr1021,wdüê\,2,,,3,õ,,,ÌßÚËÞ­°,óü,PDF,Excel,,,,Ýè,v^,
1,KOB,,,,EDI,,,,,ÊíÆ±,mFÆ±,,Nñ,,,Ï½Ào^,,,,,,
2,KOB,KOB4,,,EDI@\,,,,4,,,,,,,,,,,,,
3,KOB,KOB4,EDI1011,jp.co.fsi.edi.edi1011,}X^æ,,,,1,õ,,,XV,,,,,,,,Ýè,I¹
3,KOB,KOB4,EDI1021,jp.co.fsi.edi.edi1021,­üÍ,2,,,2,õ,,,,,o^,,,,I¹,,,I¹
3,KOB,KOB4,EDI1031,jp.co.fsi.edi.edi1031,­ê,,,,3,õ,,,ÌßÚËÞ­°,óü,\¦,,,,,,v^,I¹
3,KOB,KOB4,EDI1041,jp.co.fsi.edi.edi1041,­M,,,,4,õ,,,ì¬,,,,,,,,Ýè,
3,KOB,KOB4,EDI2011,jp.co.fsi.edi.edi2011,óÌæ,,,,5,õ,,,XV,,,,,,,,Ýè,
3,KOB,KOB4,EDI2031,jp.co.fsi.edi.edi2031,óÌê,,,,6,õ,,,ÌßÚËÞ­°,óü,\¦,,,,,,,
3,KOB,KOB4,EDI2051,jp.co.fsi.edi.edi2051,`[ì¬,,,,7,,,,,,Às,,,,,,,
3,KOB,KOB4,EDI2061,jp.co.fsi.edi.edi2061,ómF,2,,,8,õ,,,XV,,,,,,,,Ýè,
3,KOB,KOB4,EDI1031,jp.co.fsi.edi.edi1031,óê,,,,9,õ,,,ÌßÚËÞ­°,óü,\¦,,,,,,v^,I¹
3,KOB,KOB4,EDI1021,jp.co.fsi.edi.edi1021,o×üÍ,1,,,10,õ,,,,,o^,,,,I¹,,,
3,KOB,KOB4,EDI2061,jp.co.fsi.edi.edi2061,o×ê,,,,11,õ,,,ÌßÚËÞ­°,óü,\¦,,,,,,v^,I¹
1,ZAM,,,,à±,1,,,,úí,,Z,,,±ü,,,,,,,
2,ZAM,ZAM1,,,úí,,,,1,,,,,,,,,,,,,
3,ZAM,ZAM1,ZMDE1011,jp.co.fsi.zm.zmde1011,»ào[ üÍ,11131,,,1,õ,,¡dó,Åæª,Ææª,Û¶,¾×}ü,¾×í,¾×¡Ê,I¹,³ Æï,dóá,æÁ
4,ZAM,ZAM1,ZMDE1012,jp.co.fsi.zm.zmde1011,»ào[ë[üÍÍÍwè],11131,,,,õ,,,,,Às,,,,I¹,,,æÁ
3,ZAM,ZAM1,ZMDE1011,jp.co.fsi.zm.zmde1011,aào[ üÍ,11132,,,2,õ,,¡dó,Åæª,Ææª,Û¶,¾×}ü,¾×í,¾×¡Ê,I¹,³ Æï,dóá,æÁ
4,ZAM,ZAM1,ZMDE1012,jp.co.fsi.zm.zmde1011,aào[ë[üÍÍÍwè],11132,,,,õ,,,,,Às,,,,I¹,,,æÁ
3,ZAM,ZAM1,ZMDE1031,jp.co.fsi.zm.zmde1031, UÖ`[üÍ,,,,3,õ,,`[í,Åæª,Ææª,Û¶,s}ü,sí,s¡Ê,I¹,³ Æï,dóá,æÁ
4,ZAM,ZAM1,ZMDE1032,jp.co.fsi.zm.zmde1031,`[õ,,,,,õ,,,õð,,Às,,,,,,,æÁ
4,ZAM,ZAM1,ZMDE1033,jp.co.fsi.zm.zmde1031,æøæcâ¹,,,,,õ,,,,,³ ,,,,,,,ßé
4,ZAM,ZAM1,ZMDE1034,jp.co.fsi.zm.zmde1031,æøæ³ ,,,,,útüÍ,,,,,o^,,,,,,,ßé
4,ZAM,ZAM1,ZMDE1035,jp.co.fsi.zm.zmde1031,dóáÌo^,,,,,õ,,í,,,Û¶,,,,,,,ßé
4,ZAM,ZAM1,ZMDE1036,jp.co.fsi.zm.zmde1031,dóáÌo^,,,,,õ,,í,,,Û¶,,,,,,,ßé
3,ZAM,ZAM1,ZMDR1011,jp.co.fsi.zm.zmdr1011,úv\,,,,4,õ,,,ÌßÚËÞ­°,óü,PDF,Excel,,,,,v^,
3,ZAM,ZAM1,ZMDR1021,jp.co.fsi.zm.zmdr1021,dó ,,,,5,õ,,,ÌßÚËÞ­°,óü,PDF,Excel,,,,,v^,
3,ZAM,ZAM1,ZMDR1031,jp.co.fsi.zm.zmdr1031,dó`[,,,,6,õ,,,ÌßÚËÞ­°,óü,PDF,Excel,,,,ÈÚÝè,v^,
4,ZAM,ZAM1,ZMDR1032,jp.co.fsi.zm.zmdr1031,ÈÚÝè,,,,1,õ,,,,,Û¶,,,,,,,
3,ZAM,ZAM1,ZMDR1041,jp.co.fsi.zm.zmdr1041,àKo[ ,,,,7,õ,,,ÌßÚËÞ­°,óü,PDF,Excel,,,,ÈÚÝè,v^,
4,ZAM,ZAM1,ZMDR1042,jp.co.fsi.zm.zmdr1041,ÈÚÝè,,,,1,õ,,,,,Û¶,,,,,,,
2,ZAM,ZAM2,,,,,,,2,,,,,,,,,,,,,
3,ZAM,ZAM2,ZMMR1011,jp.co.fsi.zm.zmmr1011,¨è³ ,,,,1,õ,,,ÌßÚËÞ­°,óü,PDF,Excel,,,,Ýè,v^,I¹
4,ZAM,ZAM2,ZMMR1012,jp.co.fsi.zm.zmmr1011,¨è³ ,,,,,,,,ÌßÚËÞ­°,óü,PDF,Excel,OÌÈÚ,ÌÈÚ,`[\¦,,,æÁ
4,ZAM,ZAM2,ZMMR1013,jp.co.fsi.zm.zmmr1011,¨è³ [óÝè],,,,,,,,,,Û¶,,,,,,,æÁ
3,ZAM,ZAM2,ZMMR1021,jp.co.fsi.zm.zmmr1021,â³ ,,,,2,õ,,,ÌßÚËÞ­°,óü,PDF,Excel,,,,Ýè,v^,I¹
4,ZAM,ZAM1,ZMMR1022,jp.co.fsi.zm.zmmr1021,â³ ,,,,,,,,vr[,óü,PDF,Excel,OÌÈÚ,ÌÈÚ,`[\¦,,,æÁ
4,ZAM,ZAM2,ZMMR1023,jp.co.fsi.zm.zmmr1021,â³ [óÝè],,,,,,,,,,Û¶,,,,,,,æÁ
3,ZAM,ZAM2,ZMMR1031,jp.co.fsi.zm.zmmr1031,vcZ\,,,,3,õ,,,vr[,óü,PDF,Excel,,,,vñÝè,v^,I¹
4,ZAM,ZAM1,ZMMR1032,jp.co.fsi.zm.zmmr1031,vcZ\,,,,,,,,vr[,óü,PDF,Excel,ÝØÎÆ,¹vvZ,»¢´¿,¨³ ,â³ ,æÁ
4,ZAM,ZAM2,ZMMR1033,jp.co.fsi.zm.zmmr1031,vcZ\[vñÝè],,,,,,,,,,Û¶,s}ü,sí,,,,,æÁ
3,ZAM,ZAM2,ZMMR1041,jp.co.fsi.zm.zmmr1041,âÈÚWv\,,,,4,õ,,,ÌßÚËÞ­°,óü,PDF,Excel,,,,,v^,I¹
4,ZAM,ZAM1,ZMMR1042,jp.co.fsi.zm.zmmr1041,âÈÚWv\,,,,,,,,vr[,óü,PDF,Excel,OÌx,Ìx,,,,æÁ
3,ZAM,ZAM2,ZMMR1051,jp.co.fsi.zm.zmmr1051,åÊ¹vÇ\,,,,5,õ,,,vr[,óü,PDF,Excel,,åÝè,,vñÝè,v^,I¹
4,ZAM,ZAM2,ZMMR1052,jp.co.fsi.zm.zmmr1051,åÊ¹vÇ\[åÝè],,,,,õ,,,,,Û¶,,,,I¹,,,æÁ
4,ZAM,ZAM1,ZMMR1053,jp.co.fsi.zm.zmmr1051,åÊ¹vÇ\[vñÝè],,,,,,,,,,Û¶,s}ü,sí,,,,,æÁ
3,ZAM,ZAM2,ZMMR1061,jp.co.fsi.zm.zmmr1061,åWv\,,,,6,õ,,,ÌßÚËÞ­°,óü,PDF,Excel,,,,,v^,I¹
4,ZAM,ZAM1,ZMMR1062,jp.co.fsi.zm.zmmr1061,åWv\,,,,,,,,vr[,óü,PDF,Excel,OÌx,Ìx,,,,æÁ
3,ZAM,ZAM2,ZMMR1071,jp.co.fsi.zm.zmmr1071,Üúär\,,,,7,õ,,,vr[,óü,PDF,Excel,,,,,v^,I¹
3,ZAM,ZAM2,,,åWv\,,,,5,õ,,,ÌßÚËÞ­°,óü,,,,,,,,
2,ZAM,ZAM3,,,Z,,,,3,,,,,,,,,,,,,
3,ZAM,ZAM3,ZMYR1011,jp.co.fsi.zm.zmyr1011,Zñ,,,,1,õ,,,ÌßÚËÞ­°,óü,PDF,,vñÝè,L,vª,À²ÄÙÝè,v^,
4,ZAM,ZAM3,ZMYR1012,jp.co.fsi.zm.zmyr1011,Zñ,,,,,,,,ÌßÚËÞ­°,óü,ÝØÎÆ,¹vvZ,»¢´¿,,,,,æÁ
4,ZAM,ZAM3,ZMYR1013,jp.co.fsi.zm.zmyr1011,Zñ[vñÝè],,,,,,,,,,Û¶,s}ü,sí,,,,,æÁ
4,ZAM,ZAM3,ZMYR1014,jp.co.fsi.zm.zmyr1011,Zñ[L],,,,,,,,,,Û¶,,,,,,,æÁ
4,ZAM,ZAM3,ZMYR1015,jp.co.fsi.zm.zmyr1011,Zñ[vª],,,,,,,,,,Û¶,,L,,,,,æÁ
4,ZAM,ZAM3,ZMYR1016,jp.co.fsi.zm.zmyr1011,Zñ[vªLüÍ],,,,,,,,,,Û¶,,,,,,,æÁ
4,ZAM,ZAM3,ZMYR1017,jp.co.fsi.zm.zmyr1011,Zñ[^CgÝè],,,,,,,,,,Û¶,,,,,,,æÁ
3,ZAM,ZAM3,ZMYR1021,jp.co.fsi.zm.zmyr1021,ÝØÎÆ\t®¾×,,,,2,õ,,,ÌßÚËÞ­°,óü,PDF,Excel,,,,,v^,
3,ZAM,ZAM3,ZMYR1031,jp.co.fsi.zm.zmyr1031,V ÁïÅæªWv\,,,,3,õ,,,ÌßÚËÞ­°,óü,PDF,Excel,,,,,v^,I¹
3,ZAM,ZAM3,,,ÁïÅ\,,,,4,õ,,,ÌßÚËÞ­°,óü,,,,,,,,
3,ZAM,ZAM3,ZMYB1011,jp.co.fsi.zm.zmyb1011,NJz,,,,5,,,,,,Às,,,,,,Ýè,
4,ZAM,ZAM3,ZMYB1012,jp.co.fsi.zm.zmyb1011,NJzye[uÝèz,,,,,,,,,,Û¶,,,,,,,æÁ
2,ZAM,ZAM4,,,±ü,,,,4,,,,,,,,,,,,,
3,ZAM,ZAM4,ZMCM1011,jp.co.fsi.zm.zmcm1011,ïÐîñÌÝè,,,,1,,,,,,Û¶,,,,,,,
3,ZAM,ZAM4,ZMCM1021,jp.co.fsi.zm.zmcm1021,ÁïÅîñÌÝè,,,,2,õ,,,,,Û¶,,,,,,,
3,ZAM,ZAM4,,,HîñÌÝè,,,,3,õ,,,,,Û¶,,,,,,,
3,ZAM,ZAM4,ZMCM1031,jp.co.fsi.zm.zmcm1031,¨èÈÚÌo^,,,,4,õ,,,ÇÁ,óü,,,,,,,,I¹
4,ZAM,ZAM4,ZMCM1032,jp.co.fsi.zm.zmcm1031,¨èÈÚÌo^,1,,,,õ,,í,,,o^,,,,,,,
4,ZAM,ZAM4,ZMCM1032,jp.co.fsi.zm.zmcm1031,¨èÈÚÌo^,2,,,,õ,,í,,,XV,,,,,,,
4,ZAM,ZAM4,ZMCM1033,jp.co.fsi.zm.zmcm1031,¨èÈÚÌõ,1,,,,õ,,,,,,,,,,,,
4,ZAM,ZAM4,ZMCM1035,jp.co.fsi.zm.zmcm1031,¨èÈÚÌóü,,,,,õ,,,ÌßÚËÞ­°,óü,,,,,,,,ßé
3,ZAM,ZAM4,ZMCM1041,jp.co.fsi.zm.zmcm1041,âÈÚÌo^,,,,5,õ,,,ÇÁ,óü,,,,,,,,
4,ZAM,ZAM4,ZMCM1042,jp.co.fsi.zm.zmcm1041,âÈÚÌo^(â),1,,,,õ,,í,,,o^,,,,,,,
4,ZAM,ZAM4,ZMCM1042,jp.co.fsi.zm.zmcm1041,âÈÚÌo^(â),2,,,,õ,,í,,,XV,,,,,,,
4,ZAM,ZAM4,ZMCM1043,jp.co.fsi.zm.zmcm1041,âÈÚÌo^(æøæ),1,,,,õ,,í,,,o^,,,,,,,
4,ZAM,ZAM4,ZMCM1043,jp.co.fsi.zm.zmcm1041,âÈÚÌo^(æøæ),2,,,,õ,,í,,,XV,,,,,,,
4,ZAM,ZAM4,ZMCM1045,jp.co.fsi.zm.zmcm1041,âÈÚÌóü,,,,,õ,,,ÌßÚËÞ­°,óü,,,,,,,,ßé
3,ZAM,ZAM4,ZMCM1051,jp.co.fsi.zm.zmcm1051,EvÌo^,,,,6,õ,,,ÇÁ,óü,,,,,,,,
4,ZAM,ZAM4,ZMCM1052,jp.co.fsi.zm.zmcm1051,EvÌo^,1,,,,õ,,í,,,o^,,,,,,,
4,ZAM,ZAM4,ZMCM1052,jp.co.fsi.zm.zmcm1051,EvÌo^,2,,,,õ,,í,,,XV,,,,,,,
4,ZAM,ZAM4,ZMCM1053,jp.co.fsi.zm.zmcm1051,EvÌóü,,,,,õ,,,ÌßÚËÞ­°,óü,,,,,,,,ßé
3,ZAM,ZAM4,ZMCE1011,jp.co.fsi.zm.zmce1011,úñcÌo^,,,,7,,,,,óü,Û¶,,,,,,,I¹
4,ZAM,ZAM4,ZMCE1012,jp.co.fsi.zm.zmce1011,âÈÚcÌo^,,1,,,,,,,,Û¶,,,,,,,æÁ
4,ZAM,ZAM4,ZMCE1012,jp.co.fsi.zm.zmce1011,âÈÚcÌo^,,2,,,,,,,,Û¶,,,,,,,æÁ
4,ZAM,ZAM4,ZMCE1014,jp.co.fsi.zm.zmce1011,âÈÚåcÌo^,,1,,,,,,,,Û¶,,,,,,,æÁ
4,ZAM,ZAM4,ZMCE1014,jp.co.fsi.zm.zmce1011,âÈÚåcÌo^,,2,,,,,,,,Û¶,,,,,,,æÁ
4,ZAM,ZAM4,ZMCE1013,jp.co.fsi.zm.zmce1011,úñcÌóü,,,,,õ,,,ÌßÚËÞ­°,óü,,,,,,,,ßé
4,ZAM,ZAM4,ZMCE1013,jp.co.fsi.zm.zmce1011,úñcÌóü,,1,,,õ,,,ÌßÚËÞ­°,óü,,,,,,,,ßé
4,ZAM,ZAM4,ZMCE1013,jp.co.fsi.zm.zmce1011,úñcÌóü,,2,,,õ,,,ÌßÚËÞ­°,óü,,,,,,,,ßé
3,ZAM,ZAM4,ZMCM1061,jp.co.fsi.zm.zmcm1061,ÅæªÌo^,,,,8,õ,,,ÇÁ,óü,,,,,,,,I¹
4,ZAM,ZAM4,ZMCM1062,jp.co.fsi.zm.zmcm1061,ÅæªÌo^,,,,,õ,,í,,,o^,,sí,,,,,æÁ
4,ZAM,ZAM4,ZMCM1062,jp.co.fsi.zm.zmcm1061,ÅæªÌo^,1,,,,õ,,í,,,o^,,sí,,,,,æÁ
4,ZAM,ZAM4,ZMCM1062,jp.co.fsi.zm.zmcm1061,ÅæªÌo^,2,,,,õ,,í,,,XV,,sí,,,,,æÁ
4,ZAM,ZAM4,ZMCM1063,jp.co.fsi.zm.zmcm1061,ÅæªÌóü,,,,,õ,,,ÌßÚËÞ­°,óü,,,,,,,,ßé
4,ZAM,ZAM4,ZMCM1064,jp.co.fsi.zm.zmcm1061,ÅæªÌõ,,,,,,,,,,,,,,,,,æÁ
3,ZAM,ZAM4,CMCM2021,jp.co.fsi.cm.cmcm2021,SÒÌo^,,,,9,õ,,,ÇÁ,,,,,,,,,
4,ZAM,ZAM4,CMCM2022,jp.co.fsi.cm.cmcm2021,SÒÌo^,1,,,,õ,,í,,,o^,,,,,,,ßé
4,ZAM,ZAM4,CMCM2022,jp.co.fsi.cm.cmcm2021,SÒÌo^,2,,,,õ,,í,,,XV,,,,,,,ßé
3,ZAM,ZAM4,CMCM2041,jp.co.fsi.cm.cmcm2041,åÌo^,,,,10,õ,,,ÇÁ,,,,,,,,,
4,ZAM,ZAM4,CMCM2042,jp.co.fsi.cm.cmcm2041,åÌo^,1,,,,õ,,í,,,o^,,,,,,,ßé
4,ZAM,ZAM4,CMCM2042,jp.co.fsi.cm.cmcm2041,åÌo^,2,,,,õ,,í,,,XV,,,,,,,ßé
,,,,,,,,,,,,,,,,,,,,,,
1,KYU,,,,,,,,,^,Ü^,N²®,,±ü,ÚÝè,,,,,,,
2,KYU,KYU1,,,^,,,,1,,,,,,,,,,,,,
3,KYU,KYU1,KYKE1011,jp.co.fsi.ky.kyke1011,^¾×üÍ,,,,1,³,,,,,mè,,,,,,,æÁ
4,KYU,KYU1,KYKE1012,jp.co.fsi.ky.kyke1011,^¾×üÍ,,,,,õ,,í,vZ,,o^,,,,I¹,,útÏX,æÁ
4,KYU,KYU1,KYKE1011,jp.co.fsi.ky.kyke1011,^¾×üÍ,1,,,,³,,,,,mè,,,,,,,æÁ
3,KYU,KYU1,KYKR1011,jp.co.fsi.ky.kykr1011,^¾×óü,1,,,2,õ,,,ÌßÚËÞ­°,óü,,,,,,,óüÝè,
3,KYU,KYU1,,,Ï®ÚüÍ,,,,3,õ,,,ÌßÚËÞ­°,óü,,,,,,,,
3,KYU,KYU1,KYKR1021,jp.co.fsi.ky.kykr1021,ÎÓÚê\,1,1,,4,õ,,,ÌßÚËÞ­°,óü,,,,,,,óüÝè,
3,KYU,KYU1,KYKR1021,jp.co.fsi.ky.kykr1021,xTÚê\,1,11,,5,õ,,,ÌßÚËÞ­°,óü,,,,,,,óüÝè,
3,KYU,KYU1,KYKR1041,jp.co.fsi.ky.kykr1041,âsUê\(^),1,,,6,õ,,,ÌßÚËÞ­°,óü,,,,,,,óüÝè,
2,KYU,KYU2,,,Ü^,,,,2,,,,,,,,,,,,,
3,KYU,KYU2,KYSE1011,jp.co.fsi.ky.kyse1011,Ü^¾×üÍ,,,,1,³,,,,,mè,,,,,,,æÁ
4,KYU,KYU2,KYSE1012,jp.co.fsi.ky.kyse1011,Ü^¾×üÍ,,,,,õ,,í,vZ,,o^,,,,I¹,,útÏX,æÁ
4,KYU,KYU2,KYSE1011,jp.co.fsi.ky.kyse1011,Ü^¾×üÍ,1,,,,³,,,,,mè,,,,,,,æÁ
3,KYU,KYU2,KYKR1011,jp.co.fsi.ky.kykr1011,Ü^¾×óü,2,,,2,õ,,,ÌßÚËÞ­°,óü,,,,,,,óüÝè,
3,KYU,KYU2,KYKR1021,jp.co.fsi.ky.kykr1021,ÎÓÚê\,2,1,,3,õ,,,ÌßÚËÞ­°,óü,,,,,,,óüÝè,
3,KYU,KYU2,KYKR1021,jp.co.fsi.ky.kykr1021,xTÚê\,2,1,,4,õ,,,ÌßÚËÞ­°,óü,,,,,,,óüÝè,
3,KYU,KYU2,,,dó`[ì¬,,,,5,õ,,,ÌßÚËÞ­°,óü,,,,,,,,
3,KYU,KYU2,KYKR1041,jp.co.fsi.ky.kykr1041,âsUê\(Ü^),2,,,6,õ,,,ÌßÚËÞ­°,óü,,,,,,,óüÝè,
2,KYU,KYU3,,,N²®,,,,3,,,,,,,,,,,,,
3,KYU,KYU3,KYNE1011,jp.co.fsi.ky.kyne1011,N²®üÍ,,,,1,õ,,í,,,o^,,,,,,,
4,KYU,KYU3,KYNE1012,jp.co.fsi.ky.kyne1011,ÐõÌõ,,,,,õ,,,,,,,,,,,,ßé
3,KYU,KYU3,KYNB1011,jp.co.fsi.ky.kynb1011,N²®,,,,2,õ,,,,,Às,,,,,,,
3,KYU,KYU3,KYNR1011,jp.co.fsi.ky.kynr1011,N²®ê\,,,,3,õ,,,ÌßÚËÞ­°,óü,,,,,,,óüÝè,
3,KYU,KYU3,KYNR1021,jp.co.fsi.ky.kynr1021,¹ò¥û[,,,,4,õ,,,ÌßÚËÞ­°,óü,,,,,,,óüÝè,
3,KYU,KYU3,KYNR1031,jp.co.fsi.ky.kynr1031,¹ò¥ûë,,,,5,õ,,,ÌßÚËÞ­°,óü,,,,,,,óüÝè,
3,KYU,KYU3,KYNB1021,jp.co.fsi.ky.kynb1021,Åz\Ìæ,,,,6,õ,,í,,,o^,,,,,,,
2,KYU,KYU4,,,±ü,,,,4,,,,,,,,,,,,,
3,KYU,KYU4,KYCM1011,jp.co.fsi.ky.kycm1011,ïÐîñÌo^,,,,1,õ,,,,,o^,,,,,,,
3,KYU,KYU4,KYCM1021,jp.co.fsi.ky.kycm1021,ÐõÌo^,,,,2,õ,,,ÇÁ,,,,,,,,,
4,KYU,KYU4,KYCM1022,jp.co.fsi.ky.kycm1021,ÐõÌo^,1,,,,õ,,í,,,o^,,,,,,,
4,KYU,KYU4,KYCM1022,jp.co.fsi.ky.kycm1021,ÐõÌo^,2,,,,õ,,í,,,XV,,,,,,,ßé
4,KYU,KYU4,KYCM1021,jp.co.fsi.ky.kycm1021,ÐõR[hõ,1,,,,õ,,,,,,,,,,,,
3,KYU,KYU4,KYCM1031,jp.co.fsi.ky.kycm1031,åÌo^,,,,3,õ,,,ÇÁ,óü,,,,,,,óüÝè,ßé
4,KYU,KYU4,KYCM1032,jp.co.fsi.ky.kycm1031,åÌo^,1,,,,,,,,,o^,,,,,,,ßé
4,KYU,KYU4,KYCM1032,jp.co.fsi.ky.kycm1031,åÌo^,2,,,,,,í,,,o^,,,,,,,ßé
4,KYU,KYU4,KYCM1033,jp.co.fsi.ky.kycm1031,åÌóü,,,,,õ,,,ÌßÚËÞ­°,óü,,,,,,,,ßé
4,KYU,KYU4,KYCM1031,jp.co.fsi.ky.kycm1031,åR[hõ,1,,,,õ,,,,,,,,,,,,ßé
3,KYU,KYU4,KYCM1041,jp.co.fsi.ky.kycm1041,ÛÌo^,,,,4,õ,,,ÇÁ,óü,,,,,,,óüÝè,ßé
4,KYU,KYU4,KYCM1042,jp.co.fsi.ky.kycm1041,ÛÌo^,1,,,,,,,,,o^,,,,,,,ßé
4,KYU,KYU4,KYCM1042,jp.co.fsi.ky.kycm1041,ÛÌo^,2,,,,,,í,,,o^,,,,,,,ßé
4,KYU,KYU4,KYCM1043,jp.co.fsi.ky.kycm1041,ÛÌóü,,,,,õ,,,ÌßÚËÞ­°,óü,,,,,,,,ßé
4,KYU,KYU4,KYCM1041,jp.co.fsi.ky.kycm1041,ÛR[hõ,1,,,,õ,,,,,,,,,,,,ßé
3,KYU,KYU4,KYCM1051,jp.co.fsi.ky.kycm1051,âsÌo^,,,,5,õ,,,ÇÁ,óü,,,,,,,óüÝè,ßé
4,KYU,KYU4,KYCM1052,jp.co.fsi.ky.kycm1051,âsÌo^,1,,,,,,,,,o^,,,,,,,ßé
4,KYU,KYU4,KYCM1052,jp.co.fsi.ky.kycm1051,âsÌo^,2,,,,,,í,,,o^,,,,,,,ßé
4,KYU,KYU4,KYCM1053,jp.co.fsi.ky.kycm1051,âsÌóü,,,,,õ,,,ÌßÚËÞ­°,óü,o^,,,,,,,ßé
4,KYU,KYU4,KYCM1051,jp.co.fsi.ky.kycm1051,âsR[hõ,1,,,,õ,,,,,,,,,,,,ßé
3,KYU,KYU4,KYCM1061,jp.co.fsi.ky.kycm1061,xXÌo^,,,,6,õ,,,ÇÁ,óü,,,,,,,óüÝè,ßé
4,KYU,KYU4,KYCM1062,jp.co.fsi.ky.kycm1061,xXÌo^,1,,,,,,,,,o^,,,,,,,ßé
4,KYU,KYU4,KYCM1062,jp.co.fsi.ky.kycm1061,xXÌo^,2,,,,,,í,,,o^,,,,,,,ßé
4,KYU,KYU4,KYCM1063,jp.co.fsi.ky.kycm1061,xXÌóü,,,,,õ,,,ÌßÚËÞ­°,óü,o^,,,,,,,ßé
4,KYU,KYU4,KYCM1061,jp.co.fsi.ky.kycm1061,xXR[hõ,1,,,,õ,,,,,,,,,,,,ßé
3,KYU,KYU4,KYCM1071,jp.co.fsi.ky.kycm1071,ðEÌo^,,,,7,õ,,,ÇÁ,óü,,,,,,,óüÝè,ßé
4,KYU,KYU4,KYCM1072,jp.co.fsi.ky.kycm1071,ðEÌo^,1,,,,,,,,,o^,,,,,,,ßé
4,KYU,KYU4,KYCM1072,jp.co.fsi.ky.kycm1071,ðEÌo^,2,,,,,,í,,,o^,,,,,,,ßé
4,KYU,KYU4,KYCM1073,jp.co.fsi.ky.kycm1071,ðEÌóü,,,,,õ,,,ÌßÚËÞ­°,óü,o^,,,,,,,ßé
4,KYU,KYU4,KYCM1071,jp.co.fsi.ky.kycm1071,ðER[hõ,1,,,,õ,,,,,,,,,,,,ßé
3,KYU,KYU4,KYCM1081,jp.co.fsi.ky.kycm1081,s¬ºÌo^,,,,8,õ,,,ÇÁ,óü,,,,,,,óüÝè,ßé
4,KYU,KYU4,KYCM1082,jp.co.fsi.ky.kycm1081,s¬ºÌo^,1,,,,,,,,,o^,,,,,,,ßé
4,KYU,KYU4,KYCM1082,jp.co.fsi.ky.kycm1081,s¬ºÌo^,2,,,,,,í,,,o^,,,,,,,ßé
4,KYU,KYU4,KYCM1083,jp.co.fsi.ky.kycm1081,s¬ºÌóü,,,,,õ,,,ÌßÚËÞ­°,óü,o^,,,,,,,ßé
4,KYU,KYU4,KYCM1081,jp.co.fsi.ky.kycm1081,s¬ºR[hõ,1,,,,õ,,,,,,,,,,,,ßé
2,KYU,KYU5,,,ÚÝè,,,,5,,,,,,,,,,,,,
3,KYU,KYU5,KYCE1011,jp.co.fsi.ky.kyce1011,^¾×ÚÝè,1,,,1,,,,,,XV,,vZ®,,,,,
3,KYU,KYU5,KYCE1011,jp.co.fsi.ky.kyce1011,Ü^¾×ÚÝè,2,,,2,,,,,,XV,,vZ®,,,,,
4,KYU,KYU5,KYCE1012,jp.co.fsi.ky.kyce1011,vZ®Ýè,,,,,,,,,,mè,,Áª¯¸,,,,,æÁ
3,KYU,KYU5,KYCE1021,jp.co.fsi.ky.kyce1021,ÐõèÚÝè,,,,3,,,,,,XV,,,,,,,
3,KYU,KYU5,KYCE1031,jp.co.fsi.ky.kyce1031,^ [ÚÝè,1,,,4,õ,,,,,XV,,vZ®,,,,,
3,KYU,KYU5,KYCE1031,jp.co.fsi.ky.kyce1031,Ü^ [ÚÝè,2,,,5,õ,,,,,XV,,vZ®,,,,,
4,KYU,KYU5,KYCE1032,jp.co.fsi.ky.kyce1031,vZ®Ýè,,,,,,,,,,mè,,Áª¯¸,,,,,æÁ
4,KYU,KYU5,KYCE1033,jp.co.fsi.ky.kyce1031,xÚõ,,,,,,,,,,mè,,,,,,,æÁ
,,,,,,,,,,,,,,,,,,,,,,
4,HAN,HAN9,HNCM1011,jp.co.fsi.hn.hncm1011,lR[hõ,1,,,,õ,,,,,,,,,,,,ßé
4,HAN,HAN9,HANC9061,jp.co.fsi.han.hanc9061,íR[hõ,1,,,,õ,,,,,,,,,,,,ßé
4,KOB,KOB9,KOBC9011,jp.co.fsi.kob.kobc9011,düæR[hõ,1,,,,õ,,,,,,,,,,,,ßé
4,KOB,KOB9,CMCM2011,jp.co.fsi.cm.cmcm2011,DåR[hõ,1,,,,õ,,,,,,,,,,,,ßé
4,KOB,KOB9,KOBC9031,jp.co.fsi.kob.kobc9031,¤iR[hõ,1,,,,õ,,,,,,,,,,,,ßé
4,KOB,KOB9,CMCM2021,jp.co.fsi.cm.cmcm2021,SÒR[hõ,1,,,,õ,,,,,,,,,,,,ßé
4,KOB,KOB9,KOBC9511,jp.co.fsi.kob.kobc9511,IÔõ,,,,,,,,,,,,,,,,,ßé
4,ZAM,ZAM9,ZAMC9511,jp.co.fsi.zam.zamc9511,æøæcâ¹,,,,,õ,,,,,³ ,,,,,,,ßé
4,ZAM,ZAM9,ZAMC9512,jp.co.fsi.zam.zamc9511,æøæ³ ,,,,,útüÍ,,,,,o^,,,,,,,ßé
4,ZAM,ZAM9,ZAMC9521,jp.co.fsi.zam.zamc9521,dóáÌo^,,,,,õ,,í,,,Û¶,,,,,,,ßé
4,COM,COM8,CMCM1041,jp.co.fsi.cm.cmcm1041,ãæøææªõ,TB_HN_F_TORIHIKI_KUBUN1,,,,,,,,,,,,,,,,ßé
4,COM,COM8,CMCM1041,jp.co.fsi.cm.cmcm1041,düæøææªõ,TB_HN_F_TORIHIKI_KUBUN2,,,,,,,,,,,,,,,,ßé
4,COM,COM8,CMCM1041,jp.co.fsi.cm.cmcm1041,¸Zæªõ,TB_HN_COMBO_DATA_SEISAN,,,,,,,,,,,,,,,,ßé
4,COM,COM8,CMCM1041,jp.co.fsi.cm.cmcm1041,gxõ,TB_HN_COMBO_DATA_MIZUAGE,,,,,,,,,,,,,,,,ßé
4,COM,COM8,CMCM1041,jp.co.fsi.cm.cmcm1041,×ólCD,TM_HN_TESURYO_RITSU_MST_NIUKE,,,,,,,,,,,,,,,,ßé
4,COM,COM8,CMCM1041,jp.co.fsi.cm.cmcm1041,ÆíCD,TM_HN_GYOHO_MST,,,,,,,,,,,,,,,,ßé
4,COM,COM8,CMCM1041,jp.co.fsi.cm.cmcm1041,åõ,TB_CM_BUMON,,,,,,,,,,,,,,,,ßé
4,COM,COM8,CMCM1041,jp.co.fsi.cm.cmcm1041,æªõ,VI_HN_HANBAI_KUBUN_NM,,,,,,,,,,,,,,,,ßé
4,COM,COM8,CMCM1041,jp.co.fsi.cm.cmcm1041,Åæªõ,TB_ZM_F_ZEI_KUBUN,,,,,,,,,,,,,,,,ßé
4,COM,COM8,CMCM1041,jp.co.fsi.cm.cmcm1041,Ææªõ,TB_ZM_F_JIGYO_KUBUN,,,,,,,,,,,,,,,,ßé
4,COM,COM8,CMCM1041,jp.co.fsi.cm.cmcm1041,¤iæªPõ,VI_HN_SHOHIN_KBN1,,,,,,,,,,,,,,,,ßé
4,COM,COM8,CMCM1041,jp.co.fsi.cm.cmcm1041,¤iæªQõ,VI_HN_SHOHIN_KBN2,,,,,,,,,,,,,,,,ßé
4,COM,COM8,CMCM1041,jp.co.fsi.cm.cmcm1041,¤iæªRõ,VI_HN_SHOHIN_KBN3,,,,,,,,,,,,,,,,ßé
4,COM,COM8,CMCM1041,jp.co.fsi.cm.cmcm1041,¤iæªSõ,VI_HN_SHOHIN_KBN4,,,,,,,,,,,,,,,,ßé
4,COM,COM8,CMCM1041,jp.co.fsi.cm.cmcm1041,¤iæªTõ,VI_HN_SHOHIN_KBN5,,,,,,,,,,,,,,,,ßé
4,COM,COM8,CMCM1041,jp.co.fsi.cm.cmcm1041,ÁïÅüÍû@õ,TB_ZM_F_SHOHIZEI_NYURYOKU_HOHO,,,,,,,,,,,,,,,,ßé
4,COM,COM8,CMCM1041,jp.co.fsi.cm.cmcm1041,ÈÚªÞõ,TB_ZM_F_KAMOKU_BUNRUI,,,,,,,,,,,,,,,,ßé
4,COM,COM8,CMCM1041,jp.co.fsi.cm.cmcm1041,ÈÚæªõ,TB_ZM_F_KAMOKU_KUBUN,,,,,,,,,,,,,,,,ßé
4,COM,COM8,CMCM1042,jp.co.fsi.cm.cmcm1041,æªÌo^,¤iæª1,1,,,,,í,,,o^,,,,,õ,,ßé
4,COM,COM8,CMCM1042,jp.co.fsi.cm.cmcm1041,æªÌo^,¤iæª2,2,,,,,í,,,o^,,,,,õ,,ßé
4,COM,COM8,CMCM1042,jp.co.fsi.cm.cmcm1041,æªÌo^,¤iªÞ,3,,,,,í,,,o^,,,,,õ,,ßé
4,COM,COM8,CMCM1042,jp.co.fsi.cm.cmcm1041,æªÌo^,¤iæª4,4,,,,,í,,,o^,,,,,õ,,ßé
4,COM,COM8,CMCM1042,jp.co.fsi.cm.cmcm1041,æªÌo^,¤iæª5,5,,,,,í,,,o^,,,,,õ,,ßé
4,COM,COM8,CMCM1042,jp.co.fsi.cm.cmcm1041,æªÌo^,¤iæª6,6,,,,,í,,,o^,,,,,õ,,ßé
4,COM,COM8,CMCM1042,jp.co.fsi.cm.cmcm1041,æªÌo^,¤iæª7,7,,,,,í,,,o^,,,,,õ,,ßé
4,COM,COM8,CMCM1042,jp.co.fsi.cm.cmcm1041,æªÌo^,¤iæª8,8,,,,,í,,,o^,,,,,õ,,ßé
4,COM,COM8,CMCM2052,jp.co.fsi.cm.cmcm2051,ã©®dó(­¶)Ýè,1,,,,õ,,í,,,o^,,,,,,,ßé
4,COM,COM8,CMCM2052,jp.co.fsi.cm.cmcm2051,ã©®dó(­¶)Ýè,1,1,,,õ,,í,,,o^,,,,,,,ßé
4,COM,COM8,CMCM2052,jp.co.fsi.cm.cmcm2051,ã©®dó(­¶)Ýè,1,2,,,õ,,í,,,o^,,,,,,,ßé
4,COM,COM8,CMCM2052,jp.co.fsi.cm.cmcm2051,ã©®dó(­¶)Ýè,1,1,2,,õ,,í,,,o^,,,,,,,ßé
4,COM,COM8,CMCM2052,jp.co.fsi.cm.cmcm2051,dü©®dó(­¶)Ýè,2,,,,õ,,í,,,o^,,,,,,,ßé
4,COM,COM8,CMCM2052,jp.co.fsi.cm.cmcm2051,dü©®dó(­¶)Ýè,2,1,,,õ,,í,,,o^,,,,,,,ßé
4,COM,COM8,CMCM2052,jp.co.fsi.cm.cmcm2051,dü©®dó(­¶)Ýè,2,2,,,õ,,í,,,o^,,,,,,,ßé
4,COM,COM8,CMCM2052,jp.co.fsi.cm.cmcm2051,dü©®dó(­¶)Ýè,1,2,2,,õ,,í,,,o^,,,,,,,ßé
4,COM,COM8,CMCM2052,jp.co.fsi.cm.cmcm2051,Z©®dó(­¶)Ýè,3,1,,,õ,,í,,,o^,,,,,,,ßé
4,COM,COM8,CMCM2052,jp.co.fsi.cm.cmcm2051,Z©®dó(­¶)Ýè,3,2,,,õ,,í,,,o^,,,,,,,ßé
4,COM,COM8,CMCM2053,jp.co.fsi.cm.cmcm2051,©®dó(­¶)õ,1,,,,,,,,,,,,,,ÇÁ,,ßé
4,COM,COM8,CMCM2053,jp.co.fsi.cm.cmcm2051,©®dó(­¶)õ,1,1,,,,,,,,,,,,,ÇÁ,,ßé
4,COM,COM8,CMCM2053,jp.co.fsi.cm.cmcm2051,©®dó(­¶)õ,1,2,,,,,,,,,,,,,ÇÁ,,ßé
4,COM,COM8,CMCM2053,jp.co.fsi.cm.cmcm2051,©®dó(­¶)õ,2,,,,,,,,,,,,,,ÇÁ,,ßé
4,COM,COM8,CMCM2053,jp.co.fsi.cm.cmcm2051,©®dó(­¶)õ,2,1,,,,,,,,,,,,,ÇÁ,,ßé
4,COM,COM8,CMCM2053,jp.co.fsi.cm.cmcm2051,©®dó(­¶)õ,2,2,,,,,,,,,,,,,ÇÁ,,ßé
4,COM,COM8,CMCM2053,jp.co.fsi.cm.cmcm2051,©®dó(­¶)õ,3,,,,,,,,,,,,,,ÇÁ,,ßé
4,COM,COM8,CMCM2053,jp.co.fsi.cm.cmcm2051,©®dó(­¶)õ,3,1,,,,,,,,,,,,,ÇÁ,,ßé
4,COM,COM8,CMCM2053,jp.co.fsi.cm.cmcm2051,©®dó(­¶)õ,3,2,,,,,,,,,,,,,ÇÁ,,ßé
4,COM,COM8,HNMR1112,jp.co.fsi.hn.hnmr1111,úñcÈÚÌÝè,,1,1,,,,,,,,,,,,,,I¹
4,COM,COM8,HNMR1112,jp.co.fsi.hn.hnmr1111,úñcÈÚÌÝè,,1,2,,,,,,,,,,,,,,I¹
4,COM,COM8,HNMR1112,jp.co.fsi.hn.hnmr1111,úñcÈÚÌÝè,,2,1,,,,,,,,,,,,,,I¹
4,COM,COM8,HNMR1112,jp.co.fsi.hn.hnmr1111,úñcÈÚÌÝè,,2,2,,,,,,,,,,,,,,I¹
4,COM,COM8,HNMR1112,jp.co.fsi.hn.hnmr1111,üàcÈÚÌÝè,,1,1,,,,,,,,,,,,,,I¹
4,COM,COM8,HNMR1112,jp.co.fsi.hn.hnmr1111,üàcÈÚÌÝè,,1,2,,,,,,,,,,,,,,I¹
4,COM,COM8,HNMR1112,jp.co.fsi.hn.hnmr1111,üàcÈÚÌÝè,,2,1,,,,,,,,,,,,,,I¹
4,COM,COM8,HNMR1112,jp.co.fsi.hn.hnmr1111,üàcÈÚÌÝè,,2,2,,,,,,,,,,,,,,I¹
4,COM,COM8,HNMR1112,jp.co.fsi.hn.hnmr1111,úñcÈÚÌÝè,1,1,1,,,,,,,,,,,,,,I¹
4,COM,COM8,HNMR1112,jp.co.fsi.hn.hnmr1111,úñcÈÚÌÝè,1,1,2,,,,,,,,,,,,,,I¹
4,COM,COM8,HNMR1112,jp.co.fsi.hn.hnmr1111,úñcÈÚÌÝè,1,2,1,,,,,,,,,,,,,,I¹
4,COM,COM8,HNMR1112,jp.co.fsi.hn.hnmr1111,úñcÈÚÌÝè,1,2,2,,,,,,,,,,,,,,I¹
4,COM,COM8,HNMR1112,jp.co.fsi.hn.hnmr1111,üàcÈÚÌÝè,2,1,1,,,,,,,,,,,,,,I¹
4,COM,COM8,HNMR1112,jp.co.fsi.hn.hnmr1111,üàcÈÚÌÝè,2,1,2,,,,,,,,,,,,,,I¹
4,COM,COM8,HNMR1112,jp.co.fsi.hn.hnmr1111,üàcÈÚÌÝè,2,2,1,,,,,,,,,,,,,,I¹
4,COM,COM8,HNMR1112,jp.co.fsi.hn.hnmr1111,üàcÈÚÌÝè,2,2,2,,,,,,,,,,,,,,I¹
4,COM,COM9,CMCM1021,jp.co.fsi.cm.cmcm1021,³Ið,,,,,,,,,,,,,,,,,
4,COM,COM9,CMCM1031,jp.co.fsi.cm.cmcm1031,Zõ,,,,,Z¶Å,,,,,,,,,,,,ßé
4,HAN,HAN9,HNCM1081,jp.co.fsi.hn.hncm1081,pIÌõ,1,,,,õ,,,,,,,,,,,,ßé
4,HAN,HAN9,HNCM1011,jp.co.fsi.hn.hncm1011,lÌõ,1,,,,õ,,,,,,,,,,,,ßé
