^C:\DOCUMENTS AND SETTINGS\SOS011\MY DOCUMENTS\VISUAL STUDIO 2010\PROJECTS\WINDOWSFORMSAPPLICATION_港川漁港\WINDOWSFORMSAPPLICATION_港川漁港\FORM1.RESX|C:\DOCUMENTS AND SETTINGS\SOS011\MY DOCUMENTS\VISUAL STUDIO 2010\PROJECTS\WINDOWSFORMSAPPLICATION_港川漁港\WINDOWSFORMSAPPLICATION_港川漁港\PROPERTIES\RESOURCES.RESX
C:\DOCUMENTS AND SETTINGS\SOS011\MY DOCUMENTS\VISUAL STUDIO 2010\PROJECTS\WINDOWSFORMSAPPLICATION_港川漁港\WINDOWSFORMSAPPLICATION_港川漁港\OBJ\X86\DEBUG\WINDOWSFORMSAPPLICATION1.FORM1.RESOURCES
C:\DOCUMENTS AND SETTINGS\SOS011\MY DOCUMENTS\VISUAL STUDIO 2010\PROJECTS\WINDOWSFORMSAPPLICATION_港川漁港\WINDOWSFORMSAPPLICATION_港川漁港\OBJ\X86\DEBUG\WINDOWSFORMSAPPLICATION1.PROPERTIES.RESOURCES.RESOURCES
^C:\DOCUMENTS AND SETTINGS\SOS011\MY DOCUMENTS\VISUAL STUDIO 2010\PROJECTS\WINDOWSFORMSAPPLICATION_港川漁港_案3\WINDOWSFORMSAPPLICATION_港川漁港\FORM1.RESX|C:\DOCUMENTS AND SETTINGS\SOS011\MY DOCUMENTS\VISUAL STUDIO 2010\PROJECTS\WINDOWSFORMSAPPLICATION_港川漁港_案3\WINDOWSFORMSAPPLICATION_港川漁港\PROPERTIES\RESOURCES.RESX
C:\DOCUMENTS AND SETTINGS\SOS011\MY DOCUMENTS\VISUAL STUDIO 2010\PROJECTS\WINDOWSFORMSAPPLICATION_港川漁港_案3\WINDOWSFORMSAPPLICATION_港川漁港\OBJ\X86\DEBUG\WINDOWSFORMSAPPLICATION1.FORM1.RESOURCES
C:\DOCUMENTS AND SETTINGS\SOS011\MY DOCUMENTS\VISUAL STUDIO 2010\PROJECTS\WINDOWSFORMSAPPLICATION_港川漁港_案3\WINDOWSFORMSAPPLICATION_港川漁港\OBJ\X86\DEBUG\WINDOWSFORMSAPPLICATION1.PROPERTIES.RESOURCES.RESOURCES
^C:\DOCUMENTS AND SETTINGS\SOS011\MY DOCUMENTS\VISUAL STUDIO 2010\PROJECTS\WINDOWSFORMSAPPLICATION_港川漁港_案4\WINDOWSFORMSAPPLICATION_港川漁港\FORM1.RESX|C:\DOCUMENTS AND SETTINGS\SOS011\MY DOCUMENTS\VISUAL STUDIO 2010\PROJECTS\WINDOWSFORMSAPPLICATION_港川漁港_案4\WINDOWSFORMSAPPLICATION_港川漁港\PROPERTIES\RESOURCES.RESX
C:\DOCUMENTS AND SETTINGS\SOS011\MY DOCUMENTS\VISUAL STUDIO 2010\PROJECTS\WINDOWSFORMSAPPLICATION_港川漁港_案4\WINDOWSFORMSAPPLICATION_港川漁港\OBJ\X86\DEBUG\WINDOWSFORMSAPPLICATION1.FORM1.RESOURCES
C:\DOCUMENTS AND SETTINGS\SOS011\MY DOCUMENTS\VISUAL STUDIO 2010\PROJECTS\WINDOWSFORMSAPPLICATION_港川漁港_案4\WINDOWSFORMSAPPLICATION_港川漁港\OBJ\X86\DEBUG\WINDOWSFORMSAPPLICATION1.PROPERTIES.RESOURCES.RESOURCES
